…
    ## Rows: 52179 Columns: 12
    ## ── Column specification ─────────────────────────────────────────────────────────────────────────────────────
    ## Delimiter: ","
    ## chr (9): uid, victim_last, victim_first, victim_race, victim_age, victim_sex, city, state, disposition
    ## dbl (3): reported_date, lat, lon
    ## 
    ## ℹ Use `spec()` to retrieve the full column specification for this data.
    ## ℹ Specify the column types or set `show_col_types = FALSE` to quiet this message.

    homicide

    ## # A tibble: 52,179 × 12
    ##    uid       reported_date victim_last victim_first victim_race victim_age victim_sex city  state   lat   lon
    ##    <chr>             <dbl> <chr>       <chr>        <chr>       <chr>      <chr>      <chr> <chr> <dbl> <dbl>
    ##  1 Alb-0000…      20100504 GARCIA      JUAN         Hispanic    78         Male       Albu… NM     35.1 -107.
    ##  2 Alb-0000…      20100216 MONTOYA     CAMERON      Hispanic    17         Male       Albu… NM     35.1 -107.
    ##  3 Alb-0000…      20100601 SATTERFIELD VIVIANA      White       15         Female     Albu… NM     35.1 -107.
    ##  4 Alb-0000…      20100101 MENDIOLA    CARLOS       Hispanic    32         Male       Albu… NM     35.1 -107.
    ##  5 Alb-0000…      20100102 MULA        VIVIAN       White       72         Female     Albu… NM     35.1 -107.
    ##  6 Alb-0000…      20100126 BOOK        GERALDINE    White       91         Female     Albu… NM     35.2 -107.
    ##  7 Alb-0000…      20100127 MALDONADO   DAVID        Hispanic    52         Male       Albu… NM     35.1 -107.
    ##  8 Alb-0000…      20100127 MALDONADO   CONNIE       Hispanic    52         Female     Albu… NM     35.1 -107.
    ##  9 Alb-0000…      20100130 MARTIN-LEY… GUSTAVO      White       56         Male       Albu… NM     35.1 -107.
    ## 10 Alb-0000…      20100210 HERRERA     ISRAEL       Hispanic    43         Male       Albu… NM     35.1 -107.
    ## # ℹ 52,169 more rows
    ## # ℹ 1 more variable: disposition <chr>
…
    ## Warning: There was 1 warning in `mutate()`.
    ## ℹ In argument: `victim_age = as.numeric(victim_age)`.
    ## Caused by warning:
    ## ! NAs introduced by coercion

    homicide_city_state

    ## # A tibble: 39,693 × 15
    ##    uid       reported_date victim_last victim_first victim_race victim_age victim_sex city  state   lat   lon
    ##    <chr>             <dbl> <chr>       <chr>        <chr>            <dbl> <chr>      <chr> <chr> <dbl> <dbl>
    ##  1 Alb-0000…      20100601 SATTERFIELD VIVIANA      White               15 Female     Albu… NM     35.1 -107.
    ##  2 Alb-0000…      20100102 MULA        VIVIAN       White               72 Female     Albu… NM     35.1 -107.
    ##  3 Alb-0000…      20100126 BOOK        GERALDINE    White               91 Female     Albu… NM     35.2 -107.
    ##  4 Alb-0000…      20100130 MARTIN-LEY… GUSTAVO      White               56 Male       Albu… NM     35.1 -107.
    ##  5 Alb-0000…      20100218 LUJAN       KEVIN        White               NA Male       Albu… NM     35.1 -107.
    ##  6 Alb-0000…      20100308 GRAY        STEFANIA     White               43 Female     Albu… NM     35.1 -107.
    ##  7 Alb-0000…      20100323 DAVID       LARRY        White               52 Male       Albu… NM     NA     NA 
    ##  8 Alb-0000…      20100402 BRITO       ELIZABETH    White               22 Female     Albu… NM     35.1 -107.
    ##  9 Alb-0000…      20100423 KING        TEVION       Black               15 Male       Albu… NM     35.1 -107.
    ## 10 Alb-0000…      20100423 BOYKIN      CEDRIC       Black               25 Male       Albu… NM     35.1 -107.
    ## # ℹ 39,683 more rows
    ## # ℹ 4 more variables: disposition <chr>, city_state <chr>, unsolved <lgl>, unsolved_bin <dbl>
…
    ## Warning: There were 43 warnings in `mutate()`.
    ## The first warning was:
    ## ℹ In argument: `tidy_fit = map(fit, ~broom::tidy(.x, conf.int = TRUE, exponentiate = TRUE))`.
    ## ℹ In group 1: `city_state = "Albuquerque, NM"`.
    ## Caused by warning:
    ## ! glm.fit: fitted probabilities numerically 0 or 1 occurred
    ## ℹ Run `dplyr::last_dplyr_warnings()` to see the 42 remaining warnings.

    city_models

    ## # A tibble: 47 × 8
    ## # Groups:   city_state [47]
    ##    city_state      term           estimate std.error statistic   p.value conf.low conf.high
    ##    <chr>           <chr>             <dbl>     <dbl>     <dbl>     <dbl>    <dbl>     <dbl>
    ##  1 Albuquerque, NM victim_sexMale    0.566     0.385 -1.48     1.39 e- 1    0.266      1.21
    ##  2 Atlanta, GA     victim_sexMale    1.000     0.194 -0.000397 1.000e+ 0    0.686      1.47
    ##  3 Baltimore, MD   victim_sexMale    2.35      0.138  6.18     6.26 e-10    1.79       3.08
    ##  4 Baton Rouge, LA victim_sexMale    2.62      0.306  3.15     1.65 e- 3    1.46       4.89
    ##  5 Birmingham, AL  victim_sexMale    1.15      0.212  0.657    5.11 e- 1    0.761      1.75
    ##  6 Boston, MA      victim_sexMale    1.48      0.326  1.21     2.26 e- 1    0.783      2.83
    ##  7 Buffalo, NY     victim_sexMale    1.92      0.299  2.18     2.90 e- 2    1.07       3.47
    ##  8 Charlotte, NC   victim_sexMale    1.13      0.236  0.524    6.00 e- 1    0.719      1.82
    ##  9 Chicago, IL     victim_sexMale    2.44      0.102  8.77     1.86 e-18    2.00       2.98
    ## 10 Cincinnati, OH  victim_sexMale    2.50      0.269  3.41     6.49 e- 4    1.50       4.32
    ## # ℹ 37 more rows
…
## Question 2

    library(p8105.datasets)
    data("weather_df")

    weather_df

    ## # A tibble: 2,190 × 6
    ##    name           id          date        prcp  tmax  tmin
    ##    <chr>          <chr>       <date>     <dbl> <dbl> <dbl>
    ##  1 CentralPark_NY USW00094728 2021-01-01   157   4.4   0.6
    ##  2 CentralPark_NY USW00094728 2021-01-02    13  10.6   2.2
    ##  3 CentralPark_NY USW00094728 2021-01-03    56   3.3   1.1
    ##  4 CentralPark_NY USW00094728 2021-01-04     5   6.1   1.7
    ##  5 CentralPark_NY USW00094728 2021-01-05     0   5.6   2.2
    ##  6 CentralPark_NY USW00094728 2021-01-06     0   5     1.1
    ##  7 CentralPark_NY USW00094728 2021-01-07     0   5    -1  
    ##  8 CentralPark_NY USW00094728 2021-01-08     0   2.8  -2.7
    ##  9 CentralPark_NY USW00094728 2021-01-09     0   2.8  -4.3
    ## 10 CentralPark_NY USW00094728 2021-01-10     0   5    -1.6
    ## # ℹ 2,180 more rows
…
      beta_tmin = coefs$estimate[coefs$term == "tmin"]
      beta_prcp = coefs$estimate[coefs$term == "prcp"]

      tibble(
        r2 = r2,
        beta_prod = beta_tmin/ beta_prcp
      )
    })

    boot_results

    ## # A tibble: 5,000 × 2
    ##       r2 beta_prod
    ##    <dbl>     <dbl>
    ##  1 0.945     -145.
    ##  2 0.934     -304.
    ##  3 0.943     -185.
    ##  4 0.939     -127.
    ##  5 0.942     -145.
    ##  6 0.945     -177.
    ##  7 0.936     -177.
    ##  8 0.943     -131.
    ##  9 0.936     -181.
    ## 10 0.940     -220.
    ## # ℹ 4,990 more rows
…
    birthweight = 
     read_csv("birthweight.csv", na = c("NA",".", "")) |> 
      janitor :: clean_names() 

    ## Rows: 4342 Columns: 20
    ## ── Column specification ─────────────────────────────────────────────────────────────────────────────────────
    ## Delimiter: ","
    ## dbl (20): babysex, bhead, blength, bwt, delwt, fincome, frace, gaweeks, malform, menarche, mheight, momag...
    ## 
    ## ℹ Use `spec()` to retrieve the full column specification for this data.
    ## ℹ Specify the column types or set `show_col_types = FALSE` to quiet this message.

    birthweight

    ## # A tibble: 4,342 × 20
    ##    babysex bhead blength   bwt delwt fincome frace gaweeks malform menarche mheight momage mrace parity
    ##      <dbl> <dbl>   <dbl> <dbl> <dbl>   <dbl> <dbl>   <dbl>   <dbl>    <dbl>   <dbl>  <dbl> <dbl>  <dbl>
    ##  1       2    34      51  3629   177      35     1    39.9       0       13      63     36     1      3
    ##  2       1    34      48  3062   156      65     2    25.9       0       14      65     25     2      0
    ##  3       2    36      50  3345   148      85     1    39.9       0       12      64     29     1      0
    ##  4       1    34      52  3062   157      55     1    40         0       14      64     18     1      0
    ##  5       2    34      52  3374   156       5     1    41.6       0       13      66     20     1      0
    ##  6       1    33      52  3374   129      55     1    40.7       0       12      66     23     1      0
    ##  7       2    33      46  2523   126      96     2    40.3       0       14      72     29     2      0
    ##  8       2    33      49  2778   140       5     1    37.4       0       12      62     19     1      0
    ##  9       1    36      52  3515   146      85     1    40.3       0       11      61     13     1      0
    ## 10       1    33      50  3459   169      75     2    40.7       0       12      64     19     2      0
    ## # ℹ 4,332 more rows
    ## # ℹ 6 more variables: pnumlbw <dbl>, pnumsga <dbl>, ppbmi <dbl>, ppwt <dbl>, smoken <dbl>, wtgain <dbl>
…
     babies_clean 

    ## # A tibble: 4,342 × 20
    ##    babysex bhead blength   bwt delwt fincome frace gaweeks malform menarche mheight momage mrace parity
    ##    <fct>   <dbl>   <dbl> <dbl> <dbl>   <dbl> <fct>   <dbl> <fct>      <dbl>   <dbl>  <dbl> <fct>  <int>
    ##  1 Female     34      51  3629   177      35 White    39.9 No            13      63     36 White      3
    ##  2 Male       34      48  3062   156      65 Black    25.9 No            14      65     25 Black      0
    ##  3 Female     36      50  3345   148      85 White    39.9 No            12      64     29 White      0
    ##  4 Male       34      52  3062   157      55 White    40   No            14      64     18 White      0
    ##  5 Female     34      52  3374   156       5 White    41.6 No            13      66     20 White      0
    ##  6 Male       33      52  3374   129      55 White    40.7 No            12      66     23 White      0
    ##  7 Female     33      46  2523   126      96 Black    40.3 No            14      72     29 Black      0
    ##  8 Female     33      49  2778   140       5 White    37.4 No            12      62     19 White      0
    ##  9 Male       36      52  3515   146      85 White    40.3 No            11      61     13 White      0
    ## 10 Male       33      50  3459   169      75 Black    40.7 No            12      64     19 Black      0
    ## # ℹ 4,332 more rows
    ## # ℹ 6 more variables: pnumlbw <dbl>, pnumsga <dbl>, ppbmi <dbl>, ppwt <dbl>, smoken <dbl>, wtgain <dbl>
…
